{"type":"FeatureCollection", "features": [
{"type":"Feature","geometry":{"type":"Point","coordinates":[151.27597072664133,-33.88877964236819]},"properties":{"Spaces":1,"ParkRestr":"no parking tourist coaches excepted"}},
{"type":"Feature","geometry":{"type":"Point","coordinates":[151.28152287552203,-33.869052947397144]},"properties":{"Spaces":3,"ParkRestr":"24hr tourist coach parking only"}},
{"type":"Feature","geometry":{"type":"Point","coordinates":[151.2783796242014,-33.889193256214185]},"properties":{"Spaces":9,"ParkRestr":"1/2P ticket 8am-4pm tourist coaches only and no parking 8am-4pm coaches excepted"}},
{"type":"Feature","geometry":{"type":"Point","coordinates":[151.2480494148466,-33.89247021325504]},"properties":{"Spaces":1,"ParkRestr":"no parking  community buses excepted"}},
{"type":"Feature","geometry":{"type":"Point","coordinates":[151.248885821961,-33.892585156205755]},"properties":{"Spaces":1,"ParkRestr":"no parking  community buses excepted"}}
]}