{"type":"FeatureCollection", "features": [
{"type":"Feature","geometry":{"type":"Point","coordinates":[151.27306725544847,-33.88630635687647]},"properties":{"ID":"1","Location":"Glenayr Ave and Beach Rd, on mail zone"}},
{"type":"Feature","geometry":{"type":"Point","coordinates":[151.27524072882477,-33.88949500557253]},"properties":{"ID":"2","Location":"Curlewis St, north side on STA exempted no standing"}},
{"type":"Feature","geometry":{"type":"Point","coordinates":[151.27429592331032,-33.89012657426802]},"properties":{"ID":"3","Location":"Roscoe St, on truck zone"}},
{"type":"Feature","geometry":{"type":"Point","coordinates":[151.27368225959438,-33.89101873224247]},"properties":{"ID":"4","Location":"Hall St, north side, bay nearest intersection to Campbell Pde, near Gelatissimo"}},
{"type":"Feature","geometry":{"type":"Point","coordinates":[151.27363243815105,-33.89152210087109]},"properties":{"ID":"5","Location":"Campbell Pde, on existing taxi zone"}},
{"type":"Feature","geometry":{"type":"Point","coordinates":[151.27178923847387,-33.88977795403664]},"properties":{"ID":"6","Location":"Hall St, in front of Adina apartments"}},
{"type":"Feature","geometry":{"type":"Point","coordinates":[151.25186370182325,-33.89131342730622]},"properties":{"ID":"7","Location":"Adelaide St, west side and south of taxi bay"}},
{"type":"Feature","geometry":{"type":"Point","coordinates":[151.24862249624766,-33.89096418699496]},"properties":{"ID":"9","Location":"Grafton St, in front of train station"}},
{"type":"Feature","geometry":{"type":"Point","coordinates":[151.248210806328,-33.89344214041198]},"properties":{"ID":"10","Location":"Ebley St, north side and east of crosswalk"}}
]}