<?xml version="1.0" encoding="UTF-8" standalone="no"?>
<svg width="24px" height="24px" viewBox="0 0 24 24" version="1.1" xmlns="http://www.w3.org/2000/svg" xmlns:xlink="http://www.w3.org/1999/xlink" xmlns:sketch="http://www.bohemiancoding.com/sketch/ns">
    <!-- Generator: Sketch 3.2.2 (9983) - http://www.bohemiancoding.com/sketch -->
    <title>ic-melbourneBikeShare-24px</title>
    <desc>Created with Sketch.</desc>
    <defs></defs>
    <g id="Assets" stroke="none" stroke-width="1" fill="none" fill-rule="evenodd">
        <g transform="translate(-150.000000, -179.000000)" id="Melbourne-Bike-Share">
            <g transform="translate(150.000000, 179.000000)">
                <rect id="Grid" x="0" y="0" width="24" height="24"></rect>
                <path d="M3.99995294,20.0000486 L7.29407059,20.0000486 L7.29407059,12.7143343 L3.99995294,10.2857629 L3.99995294,20.0000486 Z M20.0000471,3 L12.0000471,9.31477143 L4.00004706,3 L4.00004706,7.37142857 L12.0000471,13.6862 L16.7059294,9.97145714 L16.7059294,20 L20.0000471,20 L20.0000471,3 Z" fill="white"></path>
            </g>
        </g>
    </g>
</svg>
