{
  "appId": "waverley.transport.maps.transit.timetable",
  "appName": "Waverley Transport",
  "bundledWebRuntime": false,
  "npmClient": "npm",
  "webDir": "build",
  "cordova": {},
  "linuxAndroidStudioPath": "/home/jayen/pkg/android-studio/bin/studio.sh",
  "server": {
    "url": "https://waverley.smartcitiestransport.com/"
  }
}
